…
```{r, include = FALSE}
knitr::opts_chunk$set(
  collapse = TRUE,
  comment = "#>"
)
```

## Jobs currently on the SGE queue

```r
qstat <- read_qstat()
qstat
# # A tibble: 2,119 x 13
#    job_number prio.x name             owner state.x submission_time     slots tasks.x prio.y state.y
#         <dbl>  <dbl> <chr>            <chr> <chr>   <dttm>              <int> <chr>    <dbl> <chr>  
#  1     198026  0.65  wt_D842Z_Z845D.1 owne… qw      2021-06-11 19:34:47     3 NA          NA NA     
#  2     198027  0.5   wt_D842Z_Z845D.2 owne… qw      2021-06-11 19:34:47     3 NA          NA NA     
#  3     198028  0.41  wt_D842Z_Z845D.3 owne… qw      2021-06-11 19:34:47     3 NA          NA NA     
#  4    3050724  0.365 relioncpu        owne… Eqw     2021-04-11 00:22:52   100 NA          NA NA     
#  5     127221  0.232 relion4GPU-11G   owne… Eqw     2021-06-06 17:46:46     4 NA          NA NA     
#  6     245277  0.200 singularity-run… owne… qw      2021-06-15 09:28:30     4 NA          NA NA     
#  7    2316670  0.171 run_phylophlan3… owne… Eqw     2021-03-09 17:11:46    24 NA          NA NA     
#  8    1125632  0.128 blast_abortus.sh owne… Eqw     2021-01-12 16:59:26     4 NA          NA NA     
#  9      77151  0.126 genomegenerate   owne… Eqw     2021-06-04 12:27:36     5 NA          NA NA     
# 10    1280060  0.108 atac.sh          owne… qw      2020-04-23 12:27:00     8 NA          NA NA     
# # … with 2,109 more rows, and 3 more variables: start_time <dttm>, queue_name <chr>, tasks.y <chr>
```
…
