Read a tab-delimited SGE accounting file (without parsing it) — read_raw_sge_accounting • wyntonquery
…
    References

man accounting

man sge_status

    Examples

pathname <- system.file("exdata", "accounting", package = "wyntonquery")

jobs <- read_raw_sge_accounting(pathname)
print(jobs)
#> # A tibble: 1,000 × 45
#>    qname    hostname group  owner   job_name job_number account priority
#>    <chr>    <chr>    <chr>  <chr>   <chr>         <int> <chr>      <int>
#>  1 member.q cin-id3  group4 owner09 sleep.sh          1 sge            0
#>  2 long.q   cc-id2   group4 owner09 sleep.sh          2 sge           19
#>  3 long.q   cc-id2   group4 owner09 sleep.sh          2 sge           19
#>  4 long.q   cc-id2   group4 owner09 sleep.sh          2 sge           19
#>  5 long.q   cc-id2   group4 owner09 sleep.sh          2 sge           19
#>  6 long.q   cc-id2   group4 owner09 sleep.sh          2 sge           19
#>  7 long.q   cc-id2   group4 owner09 sleep.sh          2 sge           19
#>  8 member.q cin-id2  group4 owner09 sleep.sh          2 sge            0
#>  9 long.q   cin-id2  group4 owner09 sleep.sh          2 sge           19
#> 10 long.q   cin-id2  group4 owner09 sleep.sh          2 sge           19
#> # ℹ 990 more rows
#> # ℹ 37 more variables: submission_time <dbl>, start_time <dbl>, end_time <dbl>,
#> #   failed <int>, exit_status <int>, ru_wallclock <dbl>, ru_utime <dbl>,
#> #   ru_stime <dbl>, ru_maxrss <dbl>, ru_ixrss <dbl>, ru_ismrss <dbl>,
#> #   ru_idrss <dbl>, ru_isrss <dbl>, ru_minflt <dbl>, ru_majflt <dbl>,
#> #   ru_nswap <dbl>, ru_inblock <dbl>, ru_oublock <dbl>, ru_msgsnd <dbl>,
#> #   ru_msgrcv <dbl>, ru_nsignals <dbl>, ru_nvcsw <dbl>, ru_nivcsw <dbl>, …

## Anonymize (although actually already anonymized)
jobs_anon <- anonymize(jobs)
print(jobs_anon)
#> # A tibble: 1,000 × 45
#>    qname    hostname group  owner   job_name job_number account priority
#>    <chr>    <chr>    <chr>  <chr>   <chr>         <int> <chr>      <int>
#>  1 member.q cin-id3  group6 owner02 sleep.sh          1 sge            0
#>  2 long.q   cc-id2   group6 owner02 sleep.sh          2 sge           19
#>  3 long.q   cc-id2   group6 owner02 sleep.sh          2 sge           19
#>  4 long.q   cc-id2   group6 owner02 sleep.sh          2 sge           19
#>  5 long.q   cc-id2   group6 owner02 sleep.sh          2 sge           19
#>  6 long.q   cc-id2   group6 owner02 sleep.sh          2 sge           19
#>  7 long.q   cc-id2   group6 owner02 sleep.sh          2 sge           19
#>  8 member.q cin-id2  group6 owner02 sleep.sh          2 sge            0
#>  9 long.q   cin-id2  group6 owner02 sleep.sh          2 sge           19
#> 10 long.q   cin-id2  group6 owner02 sleep.sh          2 sge           19
#> # ℹ 990 more rows
#> # ℹ 37 more variables: submission_time <dbl>, start_time <dbl>, end_time <dbl>,
#> #   failed <int>, exit_status <int>, ru_wallclock <dbl>, ru_utime <dbl>,
#> #   ru_stime <dbl>, ru_maxrss <dbl>, ru_ixrss <dbl>, ru_ismrss <dbl>,
#> #   ru_idrss <dbl>, ru_isrss <dbl>, ru_minflt <dbl>, ru_majflt <dbl>,
#> #   ru_nswap <dbl>, ru_inblock <dbl>, ru_oublock <dbl>, ru_msgsnd <dbl>,
#> #   ru_msgrcv <dbl>, ru_nsignals <dbl>, ru_nvcsw <dbl>, ru_nivcsw <dbl>, …
pathname <- system.file("exdata", "accounting", package = "wyntonquery")

jobs <- read_sge_accounting(pathname)
print(jobs)
#> # A tibble: 1,000 × 45
#>    qname    hostname group  owner   job_name job_number account priority
#>    <chr>    <chr>    <chr>  <chr>   <chr>         <int> <chr>      <int>
#>  1 member.q cin-id3  group4 owner09 sleep.sh          1 sge            0
#>  2 long.q   cc-id2   group4 owner09 sleep.sh          2 sge           19
#>  3 long.q   cc-id2   group4 owner09 sleep.sh          2 sge           19
#>  4 long.q   cc-id2   group4 owner09 sleep.sh          2 sge           19
#>  5 long.q   cc-id2   group4 owner09 sleep.sh          2 sge           19
#>  6 long.q   cc-id2   group4 owner09 sleep.sh          2 sge           19
#>  7 long.q   cc-id2   group4 owner09 sleep.sh          2 sge           19
#>  8 member.q cin-id2  group4 owner09 sleep.sh          2 sge            0
#>  9 long.q   cin-id2  group4 owner09 sleep.sh          2 sge           19
#> 10 long.q   cin-id2  group4 owner09 sleep.sh          2 sge           19
#> # ℹ 990 more rows
#> # ℹ 37 more variables: submission_time <dttm>, start_time <dttm>,
#> #   end_time <dttm>, failed <int>, exit_status <int>, ru_wallclock <drtn>,
#> #   ru_utime <drtn>, ru_stime <drtn>, ru_maxrss <chr>, ru_ixrss <chr>,
#> #   ru_ismrss <chr>, ru_idrss <chr>, ru_isrss <chr>, ru_minflt <dbl>,
#> #   ru_majflt <dbl>, ru_nswap <dbl>, ru_inblock <dbl>, ru_oublock <dbl>,
#> #   ru_msgsnd <dbl>, ru_msgrcv <dbl>, ru_nsignals <dbl>, ru_nvcsw <dbl>, …
…
