Lists System Information for the Current Machine — system_info • wyntonquery
…
#> $hostname
#> [1] "hb-x1"
#> 
#> $os_info
#> # A tibble: 5 × 2
#>   field   value                                       
#>   <chr>   <chr>                                       
#> 1 sysname Linux                                       
#> 2 release 5.4.0-107-generic                           
#> 3 version #121-Ubuntu SMP Thu Mar 24 16:04:27 UTC 2022
#> 4 machine x86_64                                      
#> 5 os_type unix                                        
#> 
#> $cpu_info
#> # A tibble: 58 × 2
#>    field      value                                   
#>    <chr>      <chr>                                   
#>  1 hostname   hb-x1                                   
#>  2 processor  0                                       
#>  3 vendor_id  vendor_GenuineIntel                     
#>  4 cpu_family 6                                       
#>  5 model      142                                     
#>  6 model_name Intel(R) Core(TM) i7-8650U CPU @ 1.90GHz
#>  7 stepping   10                                      
#>  8 microcode  0xea                                    
#>  9 cpu_mhz    3602.036                                
#> 10 cache_size 8192 KB                                 
#> # … with 48 more rows
#> 
#> $disk_free
#> # A tibble: 52 × 7
#>    filesystem     blocks_1024      used available capacity mounted         on   
#>    <chr>                <dbl>     <dbl>     <dbl>    <dbl> <chr>           <chr>
#>  1 udev               8037672         0   8037672     0    /dev            NA   
#>  2 tmpfs              1613372      2848   1610524     0.01 /run            NA   
#>  3 /dev/nvme0n1p5   755812992 650516396  66833672     0.91 /               NA   
#>  4 tmpfs              8066840     76676   7990164     0.01 /dev/shm        NA   
#>  5 tmpfs                 5120         4      5116     0.01 /run/lock       NA   
#>  6 tmpfs              8066840         0   8066840     0    /sys/fs/cgroup  NA   
#>  7 /dev/loop1            9216      9216         0     1    /snap/auto-cpu… NA   
#>  8 /dev/loop2             128       128         0     1    /snap/bare/5    NA   
#>  9 /dev/loop3          114304    114304         0     1    /snap/core/129… NA   
#> 10 /dev/loop5           17920     17920         0     1    /snap/espanso/… NA   
#> # … with 42 more rows
…
