The the number of Wynton users over time — users_over_time • wyntonquery
…
since
Drop signup dates prior to this date.

    Value

    A tibble::tibble with columns date and count,
count the cumulative sum based on date occurances.

    Examples

pathname <- system.file("exdata", "ldap_wynton_dates.txt", package = "wyntonquery")

signups <- users_over_time(pathname)
print(signups)
#> # A tibble: 1,418 × 2
#>    date       count
#>    <date>     <int>
#>  1 2017-02-21    29
#>  2 2017-03-23    30
#>  3 2017-04-01    31
#>  4 2017-04-03    32
#>  5 2017-04-03    33
#>  6 2017-04-20    34
#>  7 2017-04-20    35
#>  8 2017-04-20    36
#>  9 2017-04-25    37
#> 10 2017-05-19    38
#> # … with 1,408 more rows
…
