SGE Accounting File
…
pathname <- sge_accounting_file()
index <- read_file_index("accounting.index_by_row")
cat(sprintf("Number of job entries: %d\n", length(index)))
#> Number of job entries: 191745505

## It takes ~15 minutes to build the week index for 192 million entries
week_index <- sge_make_week_index(pathname, index = index)
saveRDS(week_index, file = "accounting.index_by_week.rds")

print(week_index)
#> # A tibble: 218 × 3
#>    week    nbr_of_jobs file_offset
#>    <chr>         <dbl>       <dbl>
#>  1 2017W33         406          59
#>  2 2017W34          44      113195
#>  3 2017W35          49      127727
#>  4 2017W36          24      143361
#>  5 2017W37           8      150740
#>  6 2017W38          30      153559
#>  7 2017W39          18      163657
#>  8 2017W40          22      169804
#>  9 2017W41           2      177075
#> 10 2017W42          18      177695
#> # … with 208 more rows
…
